V3 19
FL D:/Facultate/Proiect/An3Semestrul1/StructuraSistemelordeCalcul/clock/clock/clock.vhd 2019/11/02.20:22:28 P.20131013
EN work/clock 1572869013 \
      FL D:/Facultate/Proiect/An3Semestrul1/StructuraSistemelordeCalcul/clock/clock/clock.vhd \
      PB ieee/std_logic_1164 1381692176 PB ieee/STD_LOGIC_UNSIGNED 1381692179
AR work/clock/Behavioral 1572869014 \
      FL D:/Facultate/Proiect/An3Semestrul1/StructuraSistemelordeCalcul/clock/clock/clock.vhd \
      EN work/clock 1572869013 CP debounce CP control CP time_cnt CP lcd_ctrl
FL D:/Facultate/Proiect/An3Semestrul1/StructuraSistemelordeCalcul/clock/clock/control.vhd 2012/02/16.13:47:14 P.20131013
EN work/control 1572869007 \
      FL D:/Facultate/Proiect/An3Semestrul1/StructuraSistemelordeCalcul/clock/clock/control.vhd \
      PB ieee/std_logic_1164 1381692176 PB ieee/NUMERIC_STD 1381692181
AR work/control/Behavioral 1572869008 \
      FL D:/Facultate/Proiect/An3Semestrul1/StructuraSistemelordeCalcul/clock/clock/control.vhd \
      EN work/control 1572869007
FL D:/Facultate/Proiect/An3Semestrul1/StructuraSistemelordeCalcul/clock/clock/debounce.vhd 2019/11/02.20:02:54 P.20131013
EN work/debounce 1572869005 \
      FL D:/Facultate/Proiect/An3Semestrul1/StructuraSistemelordeCalcul/clock/clock/debounce.vhd \
      PB ieee/std_logic_1164 1381692176
AR work/debounce/Behavioral 1572869006 \
      FL D:/Facultate/Proiect/An3Semestrul1/StructuraSistemelordeCalcul/clock/clock/debounce.vhd \
      EN work/debounce 1572869005
FL D:/Facultate/Proiect/An3Semestrul1/StructuraSistemelordeCalcul/clock/clock/lcd_ctrl.vhd 2012/02/16.13:47:26 P.20131013
EN work/lcd_ctrl 1572869011 \
      FL D:/Facultate/Proiect/An3Semestrul1/StructuraSistemelordeCalcul/clock/clock/lcd_ctrl.vhd \
      PB ieee/std_logic_1164 1381692176 PB ieee/NUMERIC_STD 1381692181
AR work/lcd_ctrl/Behavioral 1572869012 \
      FL D:/Facultate/Proiect/An3Semestrul1/StructuraSistemelordeCalcul/clock/clock/lcd_ctrl.vhd \
      EN work/lcd_ctrl 1572869011
FL D:/Facultate/Proiect/An3Semestrul1/StructuraSistemelordeCalcul/clock/clock/time_cnt.vhd 2019/11/02.19:56:38 P.20131013
EN work/time_cnt 1572869009 \
      FL D:/Facultate/Proiect/An3Semestrul1/StructuraSistemelordeCalcul/clock/clock/time_cnt.vhd \
      PB ieee/std_logic_1164 1381692176 PB ieee/STD_LOGIC_UNSIGNED 1381692179
AR work/time_cnt/Behavioral 1572869010 \
      FL D:/Facultate/Proiect/An3Semestrul1/StructuraSistemelordeCalcul/clock/clock/time_cnt.vhd \
      EN work/time_cnt 1572869009
