^D:\FACULTATE\LABORATOARE\AN4SEMESTRUL1\INTERACTIUNEAOMCALCULATOR\PROIECT\OPENCVAPPLICATION-VS2017_OCV3411_BASIC_IOM\STDAFX.CPP
/c /IOPENCV/INCLUDE /ZI /JMC /nologo /W3 /WX- /diagnostics:column /sdl /Od /D _DEBUG /D _CONSOLE /D _CRT_SECURE_NO_WARNINGS /D _MBCS /Gm- /EHsc /RTC1 /MDd /GS /fp:precise /Zc:wchar_t /Zc:forScope /Zc:inline /Yc"stdafx.h" /Fp"X64\DEBUG\OPENCVAPPLICATION.PCH" /Fo"X64\DEBUG\\" /Fd"X64\DEBUG\VC142.PDB" /Gd /TP /FC D:\FACULTATE\LABORATOARE\AN4SEMESTRUL1\INTERACTIUNEAOMCALCULATOR\PROIECT\OPENCVAPPLICATION-VS2017_OCV3411_BASIC_IOM\STDAFX.CPP
^D:\FACULTATE\LABORATOARE\AN4SEMESTRUL1\INTERACTIUNEAOMCALCULATOR\PROIECT\OPENCVAPPLICATION-VS2017_OCV3411_BASIC_IOM\COLORCODE.CPP
/c /IOPENCV/INCLUDE /ZI /JMC /nologo /W3 /WX- /diagnostics:column /sdl /Od /D _DEBUG /D _CONSOLE /D _CRT_SECURE_NO_WARNINGS /D _MBCS /Gm- /EHsc /RTC1 /MDd /GS /fp:precise /Zc:wchar_t /Zc:forScope /Zc:inline /Yu"stdafx.h" /Fp"X64\DEBUG\OPENCVAPPLICATION.PCH" /Fo"X64\DEBUG\\" /Fd"X64\DEBUG\VC142.PDB" /Gd /TP /FC D:\FACULTATE\LABORATOARE\AN4SEMESTRUL1\INTERACTIUNEAOMCALCULATOR\PROIECT\OPENCVAPPLICATION-VS2017_OCV3411_BASIC_IOM\COLORCODE.CPP
^D:\FACULTATE\LABORATOARE\AN4SEMESTRUL1\INTERACTIUNEAOMCALCULATOR\PROIECT\OPENCVAPPLICATION-VS2017_OCV3411_BASIC_IOM\COMMON.CPP
/c /IOPENCV/INCLUDE /ZI /JMC /nologo /W3 /WX- /diagnostics:column /sdl /Od /D _DEBUG /D _CONSOLE /D _CRT_SECURE_NO_WARNINGS /D _MBCS /Gm- /EHsc /RTC1 /MDd /GS /fp:precise /Zc:wchar_t /Zc:forScope /Zc:inline /Yu"stdafx.h" /Fp"X64\DEBUG\OPENCVAPPLICATION.PCH" /Fo"X64\DEBUG\\" /Fd"X64\DEBUG\VC142.PDB" /Gd /TP /FC D:\FACULTATE\LABORATOARE\AN4SEMESTRUL1\INTERACTIUNEAOMCALCULATOR\PROIECT\OPENCVAPPLICATION-VS2017_OCV3411_BASIC_IOM\COMMON.CPP
^D:\FACULTATE\LABORATOARE\AN4SEMESTRUL1\INTERACTIUNEAOMCALCULATOR\PROIECT\OPENCVAPPLICATION-VS2017_OCV3411_BASIC_IOM\FUNCTIONS.CPP
/c /IOPENCV/INCLUDE /ZI /JMC /nologo /W3 /WX- /diagnostics:column /sdl /Od /D _DEBUG /D _CONSOLE /D _CRT_SECURE_NO_WARNINGS /D _MBCS /Gm- /EHsc /RTC1 /MDd /GS /fp:precise /Zc:wchar_t /Zc:forScope /Zc:inline /Yu"stdafx.h" /Fp"X64\DEBUG\OPENCVAPPLICATION.PCH" /Fo"X64\DEBUG\\" /Fd"X64\DEBUG\VC142.PDB" /Gd /TP /FC D:\FACULTATE\LABORATOARE\AN4SEMESTRUL1\INTERACTIUNEAOMCALCULATOR\PROIECT\OPENCVAPPLICATION-VS2017_OCV3411_BASIC_IOM\FUNCTIONS.CPP
^D:\FACULTATE\LABORATOARE\AN4SEMESTRUL1\INTERACTIUNEAOMCALCULATOR\PROIECT\OPENCVAPPLICATION-VS2017_OCV3411_BASIC_IOM\OPENCVAPPLICATION.CPP
/c /IOPENCV/INCLUDE /ZI /JMC /nologo /W3 /WX- /diagnostics:column /sdl /Od /D _DEBUG /D _CONSOLE /D _CRT_SECURE_NO_WARNINGS /D _MBCS /Gm- /EHsc /RTC1 /MDd /GS /fp:precise /Zc:wchar_t /Zc:forScope /Zc:inline /Yu"stdafx.h" /Fp"X64\DEBUG\OPENCVAPPLICATION.PCH" /Fo"X64\DEBUG\\" /Fd"X64\DEBUG\VC142.PDB" /Gd /TP /FC D:\FACULTATE\LABORATOARE\AN4SEMESTRUL1\INTERACTIUNEAOMCALCULATOR\PROIECT\OPENCVAPPLICATION-VS2017_OCV3411_BASIC_IOM\OPENCVAPPLICATION.CPP
